SQL> /*   Task 3 (1)	 */
SQL> CONNECT CSCI317/csci317
Connected.
SQL> CREATE INDEX LINEITEM_INDEX ON LINEITEM(L_TAX);

Index created.

SQL> 
SQL> /*   Task 3 (2)	 */
SQL> CONNECT CSCI317/csci317
Connected.
SQL> SET AUTOTRACE TRACEONLY;
SQL> 
SQL> SELECT /*+ INDEX(LINEITEM LINEITEM_INDEX)	*/ *
  2  FROM LINEITEM
  3  WHERE L_TAX = 0.02;

200441 rows selected.


Execution Plan
----------------------------------------------------------                                                                                                                                                                                                                                                                                                                                                                                                                                                                                                                                                              
Plan hash value: 2555020459                                                                                                                                                                                                                                                                                                                                                                                                                                                                                                                                                                                             
                                                                                                                                                                                                                                                                                                                                                                                                                                                                                                                                                                                                                        
------------------------------------------------------------------------------------------------------                                                                                                                                                                                                                                                                                                                                                                                                                                                                                                                  
| Id  | Operation                           | Name           | Rows  | Bytes | Cost (%CPU)| Time     |                                                                                                                                                                                                                                                                                                                                                                                                                                                                                                                  
------------------------------------------------------------------------------------------------------                                                                                                                                                                                                                                                                                                                                                                                                                                                                                                                  
|   0 | SELECT STATEMENT                    |                |   200K|    23M| 32764   (1)| 00:00:02 |                                                                                                                                                                                                                                                                                                                                                                                                                                                                                                                  
|   1 |  TABLE ACCESS BY INDEX ROWID BATCHED| LINEITEM       |   200K|    23M| 32764   (1)| 00:00:02 |                                                                                                                                                                                                                                                                                                                                                                                                                                                                                                                  
|*  2 |   INDEX RANGE SCAN                  | LINEITEM_INDEX |   200K|       |   392   (1)| 00:00:01 |                                                                                                                                                                                                                                                                                                                                                                                                                                                                                                                  
------------------------------------------------------------------------------------------------------                                                                                                                                                                                                                                                                                                                                                                                                                                                                                                                  
                                                                                                                                                                                                                                                                                                                                                                                                                                                                                                                                                                                                                        
Predicate Information (identified by operation id):                                                                                                                                                                                                                                                                                                                                                                                                                                                                                                                                                                     
---------------------------------------------------                                                                                                                                                                                                                                                                                                                                                                                                                                                                                                                                                                     
                                                                                                                                                                                                                                                                                                                                                                                                                                                                                                                                                                                                                        
   2 - access("L_TAX"=0.02)                                                                                                                                                                                                                                                                                                                                                                                                                                                                                                                                                                                             


Statistics
----------------------------------------------------------                                                                                                                                                                                                                                                                                                                                                                                                                                                                                                                                                              
         51  recursive calls                                                                                                                                                                                                                                                                                                                                                                                                                                                                                                                                                                                            
          0  db block gets                                                                                                                                                                                                                                                                                                                                                                                                                                                                                                                                                                                              
      59919  consistent gets                                                                                                                                                                                                                                                                                                                                                                                                                                                                                                                                                                                            
      32678  physical reads                                                                                                                                                                                                                                                                                                                                                                                                                                                                                                                                                                                             
          0  redo size                                                                                                                                                                                                                                                                                                                                                                                                                                                                                                                                                                                                  
   28537367  bytes sent via SQL*Net to client                                                                                                                                                                                                                                                                                                                                                                                                                                                                                                                                                                           
     147533  bytes received via SQL*Net from client                                                                                                                                                                                                                                                                                                                                                                                                                                                                                                                                                                     
      13364  SQL*Net roundtrips to/from client                                                                                                                                                                                                                                                                                                                                                                                                                                                                                                                                                                          
          3  sorts (memory)                                                                                                                                                                                                                                                                                                                                                                                                                                                                                                                                                                                             
          0  sorts (disk)                                                                                                                                                                                                                                                                                                                                                                                                                                                                                                                                                                                               
     200441  rows processed                                                                                                                                                                                                                                                                                                                                                                                                                                                                                                                                                                                             

SQL> 
SQL> SET AUTOTRACE OFF
SQL> 
SQL> /*   Task 3 (3)	 */
SQL> CONNECT CSCI317/csci317
Connected.
SQL> DROP INDEX LINEITEM_INDEX;

Index dropped.

SQL> 
SQL> /*   Task 3 (4)	 */
SQL> CONNECT SYSTEM/csci317
Connected.
SQL> CREATE TABLESPACE TASK3
  2   EXTENT MANAGEMENT LOCAL UNIFORM SIZE 256K
  3   SEGMENT SPACE MANAGEMENT AUTO
  4   DATAFILE '/u01/app/oracle/oradata/ip100215/TASK3.dbf‘
  5  	SIZE 400M AUTOEXTEND ON;

Tablespace created.

SQL> 
SQL> ALTER USER CSCI317 QUOTA 400M ON TASK3;

User altered.

SQL> 
SQL> /*   Task 3 (5)	 */
SQL> CONNECT CSCI317/csci317
Connected.
SQL> CREATE CLUSTER LINEITEM_CLST
  2   (LTAX NUMBER(12,2))
  3   TABLESPACE TASK3
  4   INDEX
  5   STORAGE (INITIAL 10M NEXT 5M PCTINCREASE 0)
  6   PCTFREE 0;

Cluster created.

SQL> 
SQL> CREATE INDEX LINEITEM_NEW_IDX ON CLUSTER LINEITEM_CLST;

Index created.

SQL> 
SQL> CREATE TABLE LINEITEM_NEW(
  2  L_ORDERKEY      NUMBER(12)      NOT NULL,
  3  L_PARTKEY	     NUMBER(12)      NOT NULL,
  4  L_SUPPKEY	     NUMBER(12)      NOT NULL,
  5  L_LINENUMBER    NUMBER(12)      NOT NULL,
  6  L_QUANTITY      NUMBER(12,2)    NOT NULL,
  7  L_EXTENDEDPRICE NUMBER(12,2)    NOT NULL,
  8  L_DISCOUNT      NUMBER(12,2)    NOT NULL,
  9  L_TAX	     NUMBER(12,2)    NOT NULL,
 10  L_RETURNFLAG    CHAR(1)	     NOT NULL,
 11  L_LINESTATUS    CHAR(1)	     NOT NULL,
 12  L_SHIPDATE      DATE	     NOT NULL,
 13  L_COMMITDATE    DATE	     NOT NULL,
 14  L_RECEIPTDATE   DATE	     NOT NULL,
 15  L_SHIPINSTRUCT  CHAR(25)	     NOT NULL,
 16  L_SHIPMODE      CHAR(10)	     NOT NULL,
 17  L_COMMENT	     VARCHAR(44)     NOT NULL)
 18  CLUSTER LINEITEM_CLST(L_TAX);

Table created.

SQL> 
SQL> /*   Task 3 (6)	*/
SQL> CONNECT CSCI317/csci317
Connected.
SQL> INSERT INTO LINEITEM_NEW (SELECT * FROM LINEITEM);

1800093 rows created.

SQL> 
SQL> /*   Task 3 (7)	 */
SQL> CONNECT CSCI317/csci317
Connected.
SQL> SET AUTOTRACE TRACEONLY;
SQL> 
SQL> SELECT *
  2  FROM LINEITEM_NEW
  3  WHERE L_TAX = 0.02;

200441 rows selected.


Execution Plan
----------------------------------------------------------                                                                                                                                                                                                                                                                                                                                                                                                                                                                                                                                                              
Plan hash value: 1835392432                                                                                                                                                                                                                                                                                                                                                                                                                                                                                                                                                                                             
                                                                                                                                                                                                                                                                                                                                                                                                                                                                                                                                                                                                                        
-----------------------------------------------------------------------------------------                                                                                                                                                                                                                                                                                                                                                                                                                                                                                                                               
| Id  | Operation            | Name             | Rows  | Bytes | Cost (%CPU)| Time     |                                                                                                                                                                                                                                                                                                                                                                                                                                                                                                                               
-----------------------------------------------------------------------------------------                                                                                                                                                                                                                                                                                                                                                                                                                                                                                                                               
|   0 | SELECT STATEMENT     |                  |   144K|    27M|     2   (0)| 00:00:01 |                                                                                                                                                                                                                                                                                                                                                                                                                                                                                                                               
|   1 |  TABLE ACCESS CLUSTER| LINEITEM_NEW     |   144K|    27M|     2   (0)| 00:00:01 |                                                                                                                                                                                                                                                                                                                                                                                                                                                                                                                               
|*  2 |   INDEX UNIQUE SCAN  | LINEITEM_NEW_IDX |     1 |       |     1   (0)| 00:00:01 |                                                                                                                                                                                                                                                                                                                                                                                                                                                                                                                               
-----------------------------------------------------------------------------------------                                                                                                                                                                                                                                                                                                                                                                                                                                                                                                                               
                                                                                                                                                                                                                                                                                                                                                                                                                                                                                                                                                                                                                        
Predicate Information (identified by operation id):                                                                                                                                                                                                                                                                                                                                                                                                                                                                                                                                                                     
---------------------------------------------------                                                                                                                                                                                                                                                                                                                                                                                                                                                                                                                                                                     
                                                                                                                                                                                                                                                                                                                                                                                                                                                                                                                                                                                                                        
   2 - access("L_TAX"=0.02)                                                                                                                                                                                                                                                                                                                                                                                                                                                                                                                                                                                             
                                                                                                                                                                                                                                                                                                                                                                                                                                                                                                                                                                                                                        
Note                                                                                                                                                                                                                                                                                                                                                                                                                                                                                                                                                                                                                    
-----                                                                                                                                                                                                                                                                                                                                                                                                                                                                                                                                                                                                                   
   - dynamic statistics used: dynamic sampling (level=2)                                                                                                                                                                                                                                                                                                                                                                                                                                                                                                                                                                


Statistics
----------------------------------------------------------                                                                                                                                                                                                                                                                                                                                                                                                                                                                                                                                                              
         10  recursive calls                                                                                                                                                                                                                                                                                                                                                                                                                                                                                                                                                                                            
          3  db block gets                                                                                                                                                                                                                                                                                                                                                                                                                                                                                                                                                                                              
      20074  consistent gets                                                                                                                                                                                                                                                                                                                                                                                                                                                                                                                                                                                            
       3352  physical reads                                                                                                                                                                                                                                                                                                                                                                                                                                                                                                                                                                                             
     264116  redo size                                                                                                                                                                                                                                                                                                                                                                                                                                                                                                                                                                                                  
   25701202  bytes sent via SQL*Net to client                                                                                                                                                                                                                                                                                                                                                                                                                                                                                                                                                                           
     147533  bytes received via SQL*Net from client                                                                                                                                                                                                                                                                                                                                                                                                                                                                                                                                                                     
      13364  SQL*Net roundtrips to/from client                                                                                                                                                                                                                                                                                                                                                                                                                                                                                                                                                                          
          0  sorts (memory)                                                                                                                                                                                                                                                                                                                                                                                                                                                                                                                                                                                             
          0  sorts (disk)                                                                                                                                                                                                                                                                                                                                                                                                                                                                                                                                                                                               
     200441  rows processed                                                                                                                                                                                                                                                                                                                                                                                                                                                                                                                                                                                             

SQL> 
SQL> SET AUTOTRACE OFF
SQL> 
SQL> /*    Task 3 (8)	  */
SQL> CONNECT SYSTEM/csci317
Connected.
SQL> DROP TABLESPACE TASK3 INCLUDING CONTENTS AND DATAFILES;

Tablespace dropped.

SQL> 
SQL> SPOOL OFF
