SQL> SELECT salary FROM POSITION;

    Salary                                                                                                                                                                                              
----------                                                                                                                                                                                              
  45000.00                                                                                                                                                                                              
 450000.00                                                                                                                                                                                              
  50000.00                                                                                                                                                                                              
 200000.00                                                                                                                                                                                              
 200000.00                                                                                                                                                                                              
 100000.00                                                                                                                                                                                              
 800000.00                                                                                                                                                                                              
  45000.00                                                                                                                                                                                              
 450000.00                                                                                                                                                                                              
  50000.00                                                                                                                                                                                              

10 rows selected.

SQL> SELECT salary FROM POSITION;

    Salary                                                                                                                                                                                              
----------                                                                                                                                                                                              
  49500.00                                                                                                                                                                                              
 495000.00                                                                                                                                                                                              
  55000.00                                                                                                                                                                                              
 220000.00                                                                                                                                                                                              
 200000.00                                                                                                                                                                                              
 110000.00                                                                                                                                                                                              
 880000.00                                                                                                                                                                                              
  49500.00                                                                                                                                                                                              
 495000.00                                                                                                                                                                                              
  55000.00                                                                                                                                                                                              

10 rows selected.

SQL> SPOOL OFF
