
TKPROF: Release 12.1.0.2.0 - Development on Sun Oct 22 13:10:19 2017

Copyright (c) 1982, 2014, Oracle and/or its affiliates.  All rights reserved.

Trace file: ip100215_s001_28733_SUNDAY.trc
Sort options: default

********************************************************************************
count    = number of times OCI procedure was executed
cpu      = cpu time in seconds executing 
elapsed  = elapsed time in seconds executing
disk     = number of physical reads of buffers from disk
query    = number of buffers gotten for consistent read
current  = number of buffers gotten in current mode (usually for update)
rows     = number of rows processed by the fetch or execute call
********************************************************************************

SQL ID: 9gpcbung1kvx6 Plan Hash: 0

BEGIN DBMS_SESSION.SET_SQL_TRACE(sql_trace => true); END;


call     count       cpu    elapsed       disk      query    current        rows
------- ------  -------- ---------- ---------- ---------- ----------  ----------
Parse        1      0.00       0.01         10         69          0           0
Execute      1      0.00       0.01          7         79          0           1
Fetch        0      0.00       0.00          0          0          0           0
------- ------  -------- ---------- ---------- ---------- ----------  ----------
total        2      0.00       0.02         17        148          0           1

Misses in library cache during parse: 1
Optimizer mode: ALL_ROWS
Parsing user id: 109  (CSCI317)
********************************************************************************

SQL ID: 4tk6t8tfsfqbf Plan Hash: 0

alter session set sql_trace=true


call     count       cpu    elapsed       disk      query    current        rows
------- ------  -------- ---------- ---------- ---------- ----------  ----------
Parse        1      0.00       0.00          0          0          0           0
Execute      1      0.00       0.00          0          0          0           0
Fetch        0      0.00       0.00          0          0          0           0
------- ------  -------- ---------- ---------- ---------- ----------  ----------
total        2      0.00       0.00          0          0          0           0

Misses in library cache during parse: 0
Parsing user id: 109  (CSCI317)   (recursive depth: 1)
********************************************************************************

SQL ID: d77x6f7gw9hfv Plan Hash: 0

begin dbms_output.enable(1000000); end;


call     count       cpu    elapsed       disk      query    current        rows
------- ------  -------- ---------- ---------- ---------- ----------  ----------
Parse        1      0.00       0.00          0          0          0           0
Execute      1      0.00       0.00          0          0          0           1
Fetch        0      0.00       0.00          0          0          0           0
------- ------  -------- ---------- ---------- ---------- ----------  ----------
total        2      0.00       0.00          0          0          0           1

Misses in library cache during parse: 1
Optimizer mode: ALL_ROWS
Parsing user id: 109  (CSCI317)
********************************************************************************

DECLARE
BEGIN
  FOR PARTKEY IN (SELECT DISTINCT PS_PARTKEY FROM PARTSUPP)
  LOOP
    INSERT INTO NEW_PART ( SELECT * 
                           FROM PART
                           WHERE P_PARTKEY = PARTKEY.PS_PARTKEY );
    COMMIT;
  END LOOP;
  FOR SUPPKEY IN (SELECT DISTINCT PS_SUPPKEY FROM PARTSUPP)
  LOOP
    INSERT INTO NEW_SUPPLIER ( SELECT * 
                               FROM SUPPLIER
                               WHERE S_SUPPKEY = SUPPKEY.PS_SUPPKEY );
    COMMIT;
  END LOOP;
  INSERT INTO NEW_PARTSUPP ( SELECT * 
                             FROM PARTSUPP 
                             WHERE PS_PARTKEY IN ( SELECT P_PARTKEY
                                  FROM NEW_PART ) 
                             AND PS_SUPPKEY IN ( SELECT S_SUPPKEY
                                                   FROM NEW_SUPPLIER ) );
  COMMIT;
END;

call     count       cpu    elapsed       disk      query    current        rows
------- ------  -------- ---------- ---------- ---------- ----------  ----------
Parse        1      0.00       0.02          0          0          0           0
Execute      1     10.04      32.29          0          0          0           1
Fetch        0      0.00       0.00          0          0          0           0
------- ------  -------- ---------- ---------- ---------- ----------  ----------
total        2     10.05      32.31          0          0          0           1

Misses in library cache during parse: 1
Optimizer mode: ALL_ROWS
Parsing user id: 109  (CSCI317)
********************************************************************************

SQL ID: 06fqjnc5nqqjj Plan Hash: 1879026300

SELECT DISTINCT PS_PARTKEY 
FROM
 PARTSUPP


call     count       cpu    elapsed       disk      query    current        rows
------- ------  -------- ---------- ---------- ---------- ----------  ----------
Parse        1      0.00       0.00          0          0          0           0
Execute      1      0.00       0.00          0          0          0           0
Fetch      601      0.10       0.37        876        883          0       60000
------- ------  -------- ---------- ---------- ---------- ----------  ----------
total      603      0.10       0.38        876        883          0       60000

Misses in library cache during parse: 1
Optimizer mode: ALL_ROWS
Parsing user id: 109  (CSCI317)   (recursive depth: 1)
Number of plan statistics captured: 1

Rows (1st) Rows (avg) Rows (max)  Row Source Operation
---------- ---------- ----------  ---------------------------------------------------
     60000      60000      60000  HASH UNIQUE (cr=883 pr=876 pw=0 time=303334 us cost=703 size=302260 card=60452)
    240000     240000     240000   INDEX FAST FULL SCAN PARTSUPP_PKEY (cr=883 pr=876 pw=0 time=83613 us cost=322 size=1200000 card=240000)(object id 92147)


Rows     Execution Plan
-------  ---------------------------------------------------
      0  SELECT STATEMENT   MODE: ALL_ROWS
  60000   HASH (UNIQUE)
 240000    INDEX   MODE: ANALYZED (FAST FULL SCAN) OF 'PARTSUPP_PKEY' 
               (INDEX (UNIQUE))

********************************************************************************

SQL ID: 0r1wtsgpttdkt Plan Hash: 1532124002

INSERT INTO NEW_PART ( SELECT * FROM PART WHERE P_PARTKEY = :B1 )



call     count       cpu    elapsed       disk      query    current        rows
------- ------  -------- ---------- ---------- ---------- ----------  ----------
Parse        1      0.00       0.00          0          0          0           0
Execute  60000      6.08      24.41       1160     182945     309453       60000
Fetch        0      0.00       0.00          0          0          0           0
------- ------  -------- ---------- ---------- ---------- ----------  ----------
total    60001      6.08      24.41       1160     182945     309453       60000

Misses in library cache during parse: 1
Misses in library cache during execute: 1
Optimizer mode: ALL_ROWS
Parsing user id: 109  (CSCI317)   (recursive depth: 1)
Number of plan statistics captured: 1

Rows (1st) Rows (avg) Rows (max)  Row Source Operation
---------- ---------- ----------  ---------------------------------------------------
         0          0          0  LOAD TABLE CONVENTIONAL  NEW_PART (cr=5 pr=3 pw=0 time=7900 us)
         1          1          1   TABLE ACCESS BY INDEX ROWID PART (cr=3 pr=3 pw=0 time=137 us cost=2 size=121 card=1)
         1          1          1    INDEX UNIQUE SCAN PART_PEKEY (cr=2 pr=2 pw=0 time=102 us cost=1 size=0 card=1)(object id 92143)


Rows     Execution Plan
-------  ---------------------------------------------------
      0  INSERT STATEMENT   MODE: ALL_ROWS
      0   LOAD TABLE CONVENTIONAL OF 'NEW_PART'
      1    TABLE ACCESS   MODE: ANALYZED (BY INDEX ROWID) OF 'PART' 
               (TABLE)
      1     INDEX   MODE: ANALYZED (UNIQUE SCAN) OF 'PART_PEKEY' (INDEX 
                (UNIQUE))

********************************************************************************

SQL ID: 8ggw94h7mvxd7 Plan Hash: 0

COMMIT


call     count       cpu    elapsed       disk      query    current        rows
------- ------  -------- ---------- ---------- ---------- ----------  ----------
Parse        3      0.00       0.00          0          0          0           0
Execute  63001     21.46      60.93          0          0      63001           0
Fetch        0      0.00       0.00          0          0          0           0
------- ------  -------- ---------- ---------- ---------- ----------  ----------
total    63004     21.46      60.93          0          0      63001           0

Misses in library cache during parse: 0
Parsing user id: 109  (CSCI317)   (recursive depth: 1)
********************************************************************************

SQL ID: 4k61s0kxvfgyg Plan Hash: 1879026300

SELECT DISTINCT PS_SUPPKEY 
FROM
 PARTSUPP


call     count       cpu    elapsed       disk      query    current        rows
------- ------  -------- ---------- ---------- ---------- ----------  ----------
Parse        1      0.00       0.00          0          0          0           0
Execute      1      0.00       0.00          0          0          0           0
Fetch       31      0.08       0.24        876        883          0        3000
------- ------  -------- ---------- ---------- ---------- ----------  ----------
total       33      0.08       0.24        876        883          0        3000

Misses in library cache during parse: 1
Optimizer mode: ALL_ROWS
Parsing user id: 109  (CSCI317)   (recursive depth: 1)
Number of plan statistics captured: 1

Rows (1st) Rows (avg) Rows (max)  Row Source Operation
---------- ---------- ----------  ---------------------------------------------------
      3000       3000       3000  HASH UNIQUE (cr=883 pr=876 pw=0 time=240185 us cost=328 size=12000 card=3000)
    240000     240000     240000   INDEX FAST FULL SCAN PARTSUPP_PKEY (cr=883 pr=876 pw=0 time=119371 us cost=322 size=960000 card=240000)(object id 92147)


Rows     Execution Plan
-------  ---------------------------------------------------
      0  SELECT STATEMENT   MODE: ALL_ROWS
   3000   HASH (UNIQUE)
 240000    INDEX   MODE: ANALYZED (FAST FULL SCAN) OF 'PARTSUPP_PKEY' 
               (INDEX (UNIQUE))

********************************************************************************

SQL ID: bxk4yy4cjt3vz Plan Hash: 710830171

INSERT INTO NEW_SUPPLIER ( SELECT * FROM SUPPLIER WHERE S_SUPPKEY = :B1 )



call     count       cpu    elapsed       disk      query    current        rows
------- ------  -------- ---------- ---------- ---------- ----------  ----------
Parse        1      0.00       0.00          0          0          0           0
Execute   3000      0.33       1.35         71       9100      18741        3000
Fetch        0      0.00       0.00          0          0          0           0
------- ------  -------- ---------- ---------- ---------- ----------  ----------
total     3001      0.33       1.35         71       9100      18741        3000

Misses in library cache during parse: 1
Misses in library cache during execute: 1
Optimizer mode: ALL_ROWS
Parsing user id: 109  (CSCI317)   (recursive depth: 1)
Number of plan statistics captured: 1

Rows (1st) Rows (avg) Rows (max)  Row Source Operation
---------- ---------- ----------  ---------------------------------------------------
         0          0          0  LOAD TABLE CONVENTIONAL  NEW_SUPPLIER (cr=5 pr=4 pw=0 time=7999 us)
         1          1          1   TABLE ACCESS BY INDEX ROWID SUPPLIER (cr=3 pr=3 pw=0 time=5882 us cost=2 size=143 card=1)
         1          1          1    INDEX UNIQUE SCAN SUPPLIER_PKEY (cr=2 pr=2 pw=0 time=5792 us cost=1 size=0 card=1)(object id 92145)


Rows     Execution Plan
-------  ---------------------------------------------------
      0  INSERT STATEMENT   MODE: ALL_ROWS
      0   LOAD TABLE CONVENTIONAL OF 'NEW_SUPPLIER'
      1    TABLE ACCESS   MODE: ANALYZED (BY INDEX ROWID) OF 'SUPPLIER' 
               (TABLE)
      1     INDEX   MODE: ANALYZED (UNIQUE SCAN) OF 'SUPPLIER_PKEY' 
                (INDEX (UNIQUE))

********************************************************************************

SQL ID: 8bgptcmz473zj Plan Hash: 3110357013

SELECT /* OPT_DYN_SAMP */ /*+ ALL_ROWS IGNORE_WHERE_CLAUSE 
  NO_PARALLEL(SAMPLESUB) opt_param('parallel_execution_enabled', 'false') 
  NO_PARALLEL_INDEX(SAMPLESUB) NO_SQL_TUNE */ NVL(SUM(C1),:"SYS_B_0"), 
  NVL(SUM(C2),:"SYS_B_1"), COUNT(DISTINCT C3), NVL(SUM(CASE WHEN C3 IS NULL 
  THEN :"SYS_B_2" ELSE :"SYS_B_3" END),:"SYS_B_4") 
FROM
 (SELECT /*+ NO_PARALLEL("NEW_SUPPLIER") FULL("NEW_SUPPLIER") 
  NO_PARALLEL_INDEX("NEW_SUPPLIER") */ :"SYS_B_5" AS C1, :"SYS_B_6" AS C2, 
  "NEW_SUPPLIER"."S_SUPPKEY" AS C3 FROM "CSCI317"."NEW_SUPPLIER" SAMPLE BLOCK 
  (:"SYS_B_7" , :"SYS_B_8") SEED (:"SYS_B_9") "NEW_SUPPLIER") SAMPLESUB


call     count       cpu    elapsed       disk      query    current        rows
------- ------  -------- ---------- ---------- ---------- ----------  ----------
Parse        2      0.00       0.00          0          0          0           0
Execute      2      0.00       0.00          0          0          0           0
Fetch        2      0.00       0.01          0        131          1           2
------- ------  -------- ---------- ---------- ---------- ----------  ----------
total        6      0.00       0.02          0        131          1           2

Misses in library cache during parse: 1
Misses in library cache during execute: 1
Optimizer mode: ALL_ROWS
Parsing user id: 109  (CSCI317)   (recursive depth: 2)
Number of plan statistics captured: 2

Rows (1st) Rows (avg) Rows (max)  Row Source Operation
---------- ---------- ----------  ---------------------------------------------------
         1          1          1  SORT AGGREGATE (cr=66 pr=0 pw=0 time=7993 us)
      2143       2143       2143   VIEW  VW_DAG_0 (cr=66 pr=0 pw=0 time=7774 us cost=3 size=156 card=4)
      2143       2143       2143    HASH GROUP BY (cr=66 pr=0 pw=0 time=6892 us cost=3 size=100 card=4)
      2143       2143       2143     TABLE ACCESS SAMPLE NEW_SUPPLIER (cr=66 pr=0 pw=0 time=1826 us cost=2 size=100 card=4)

error during execute of EXPLAIN PLAN statement
ORA-00907: missing right parenthesis

parse error offset: 605
********************************************************************************

SQL ID: 9wn6gby65ywt6 Plan Hash: 2852716334

INSERT INTO NEW_PARTSUPP ( SELECT * FROM PARTSUPP WHERE PS_PARTKEY IN ( 
  SELECT P_PARTKEY FROM NEW_PART ) AND PS_SUPPKEY IN ( SELECT S_SUPPKEY FROM 
  NEW_SUPPLIER ) )



call     count       cpu    elapsed       disk      query    current        rows
------- ------  -------- ---------- ---------- ---------- ----------  ----------
Parse        1      0.00       0.01          0          4          0           0
Execute      1      2.50       7.17       4948     272722    1018687      240000
Fetch        0      0.00       0.00          0          0          0           0
------- ------  -------- ---------- ---------- ---------- ----------  ----------
total        2      2.51       7.19       4948     272726    1018687      240000

Misses in library cache during parse: 1
Misses in library cache during execute: 1
Optimizer mode: ALL_ROWS
Parsing user id: 109  (CSCI317)   (recursive depth: 1)
Number of plan statistics captured: 1

Rows (1st) Rows (avg) Rows (max)  Row Source Operation
---------- ---------- ----------  ---------------------------------------------------
         0          0          0  LOAD TABLE CONVENTIONAL  NEW_PARTSUPP (cr=273655 pr=5018 pw=0 time=7308113 us)
    240000     240000     240000   NESTED LOOPS  (cr=263468 pr=4943 pw=0 time=2196884 us cost=1880 size=40231800 card=239475)
    240000     240000     240000    NESTED LOOPS  (cr=244946 pr=4930 pw=0 time=1632509 us cost=1868 size=37118160 card=239472)
    240000     240000     240000     TABLE ACCESS FULL PARTSUPP (cr=4944 pr=4930 pw=0 time=535854 us cost=1857 size=34080000 card=240000)
    240000     240000     240000     INDEX UNIQUE SCAN NEW_SUPPLIER_PKEY (cr=240002 pr=0 pw=0 time=785294 us cost=0 size=13 card=1)(object id 94115)
    240000     240000     240000    INDEX UNIQUE SCAN NEW_PART_PEKEY (cr=18522 pr=13 pw=0 time=339206 us cost=0 size=13 card=1)(object id 94113)


Rows     Execution Plan
-------  ---------------------------------------------------
      0  INSERT STATEMENT   MODE: ALL_ROWS
      0   LOAD TABLE CONVENTIONAL OF 'NEW_PARTSUPP'
 240000    NESTED LOOPS
 240000     NESTED LOOPS
 240000      TABLE ACCESS   MODE: ANALYZED (FULL) OF 'PARTSUPP' (TABLE)

 240000      INDEX (UNIQUE SCAN) OF 'NEW_SUPPLIER_PKEY' (INDEX (UNIQUE))

 240000     INDEX (UNIQUE SCAN) OF 'NEW_PART_PEKEY' (INDEX (UNIQUE))

********************************************************************************

SQL ID: 5cuf8321bbra5 Plan Hash: 1474178521

SELECT /* OPT_DYN_SAMP */ /*+ ALL_ROWS IGNORE_WHERE_CLAUSE 
  NO_PARALLEL(SAMPLESUB) opt_param('parallel_execution_enabled', 'false') 
  NO_PARALLEL_INDEX(SAMPLESUB) NO_SQL_TUNE */ NVL(SUM(C1),:"SYS_B_0"), 
  NVL(SUM(C2),:"SYS_B_1"), COUNT(DISTINCT C3), NVL(SUM(CASE WHEN C3 IS NULL 
  THEN :"SYS_B_2" ELSE :"SYS_B_3" END),:"SYS_B_4") 
FROM
 (SELECT /*+ NO_PARALLEL("NEW_PART") FULL("NEW_PART") 
  NO_PARALLEL_INDEX("NEW_PART") */ :"SYS_B_5" AS C1, :"SYS_B_6" AS C2, 
  "NEW_PART"."P_PARTKEY" AS C3 FROM "CSCI317"."NEW_PART" SAMPLE BLOCK 
  (:"SYS_B_7" , :"SYS_B_8") SEED (:"SYS_B_9") "NEW_PART") SAMPLESUB


call     count       cpu    elapsed       disk      query    current        rows
------- ------  -------- ---------- ---------- ---------- ----------  ----------
Parse        2      0.00       0.00          0          0          0           0
Execute      2      0.00       0.00          0          0          0           0
Fetch        2      0.00       0.02         50        171          1           2
------- ------  -------- ---------- ---------- ---------- ----------  ----------
total        6      0.01       0.02         50        171          1           2

Misses in library cache during parse: 1
Misses in library cache during execute: 1
Optimizer mode: ALL_ROWS
Parsing user id: 109  (CSCI317)   (recursive depth: 2)
Number of plan statistics captured: 2

Rows (1st) Rows (avg) Rows (max)  Row Source Operation
---------- ---------- ----------  ---------------------------------------------------
         1          1          1  SORT AGGREGATE (cr=86 pr=25 pw=0 time=11570 us)
      3800       3800       3800   VIEW  VW_DAG_0 (cr=86 pr=25 pw=0 time=11145 us cost=3 size=156 card=4)
      3800       3800       3800    HASH GROUP BY (cr=86 pr=25 pw=0 time=9384 us cost=3 size=100 card=4)
      3800       3800       3800     TABLE ACCESS SAMPLE NEW_PART (cr=86 pr=25 pw=0 time=1224 us cost=2 size=100 card=4)

error during execute of EXPLAIN PLAN statement
ORA-00907: missing right parenthesis

parse error offset: 585
********************************************************************************

declare
   stmt varchar2(200);
   cnt number;
BEGIN
     if sys.dbms_standard.dictionary_obj_type = 'USER' THEN
       stmt := 'DELETE FROM SDO_GEOM_METADATA_TABLE ' ||
     ' WHERE SDO_OWNER = :owner ';
       EXECUTE IMMEDIATE stmt USING sys.dbms_standard.dictionary_obj_name;
       stmt := 'DELETE FROM SDO_MAPS_TABLE ' ||
    ' WHERE SDO_OWNER = :owner ';
       EXECUTE IMMEDIATE stmt USING sys.dbms_standard.dictionary_obj_name;
       stmt := 'DELETE FROM SDO_CACHED_MAPS_TABLE ' ||
    ' WHERE SDO_OWNER = :owner ';
       EXECUTE IMMEDIATE stmt USING sys.dbms_standard.dictionary_obj_name;
       stmt := 'DELETE FROM SDO_STYLES_TABLE ' ||
    ' WHERE SDO_OWNER = :owner ';
       EXECUTE IMMEDIATE stmt USING sys.dbms_standard.dictionary_obj_name;
       stmt := 'DELETE FROM SDO_THEMES_TABLE ' ||
   ' WHERE SDO_OWNER = :owner ';
       EXECUTE IMMEDIATE stmt USING sys.dbms_standard.dictionary_obj_name;
       stmt := 'DELETE FROM SDO_LRS_METADATA_TABLE ' ||
   ' WHERE SDO_OWNER = :owner ';
       EXECUTE IMMEDIATE stmt USING sys.dbms_standard.dictionary_obj_name;
       stmt := 'DELETE FROM SDO_TOPO_METADATA_TABLE ' ||
   ' WHERE SDO_OWNER = :owner ';
       EXECUTE IMMEDIATE stmt USING sys.dbms_standard.dictionary_obj_name;
       stmt := 'DELETE FROM SDO_ANNOTATION_TEXT_METADATA ' ||
   ' WHERE F_TABLE_SCHEMA = :owner ';
       EXECUTE IMMEDIATE stmt USING sys.dbms_standard.dictionary_obj_name;
    end if;
end;

call     count       cpu    elapsed       disk      query    current        rows
------- ------  -------- ---------- ---------- ---------- ----------  ----------
Parse        1      0.00       0.00          0          0          0           0
Execute      1      0.00       0.00          0          0          0           1
Fetch        0      0.00       0.00          0          0          0           0
------- ------  -------- ---------- ---------- ---------- ----------  ----------
total        2      0.00       0.00          0          0          0           1

Misses in library cache during parse: 0
Optimizer mode: ALL_ROWS
Parsing user id: 79  (MDSYS)   (recursive depth: 3)
********************************************************************************

DECLARE
  stmt    VARCHAR2(256);
BEGIN
  IF  sys.dbms_standard.dictionary_obj_type = 'USER'  THEN
    stmt := 'DELETE FROM SDO_NETWORK_METADATA_TABLE WHERE SDO_OWNER = :name';
    EXECUTE IMMEDIATE stmt using NLS_UPPER(sys.dbms_standard.dictionary_obj_name);
    stmt := 'DELETE FROM SDO_NETWORK_CONSTRAINTS WHERE SDO_OWNER = :name';
    EXECUTE IMMEDIATE stmt using NLS_UPPER(sys.dbms_standard.dictionary_obj_name);
    stmt := 'DELETE FROM SDO_NETWORK_LOCKS_WM WHERE SDO_OWNER = :name';
    EXECUTE IMMEDIATE stmt using NLS_UPPER(sys.dbms_standard.dictionary_obj_name);
    stmt := 'DELETE FROM SDO_NETWORK_USER_DATA WHERE SDO_OWNER = :name';
    EXECUTE IMMEDIATE stmt using NLS_UPPER(sys.dbms_standard.dictionary_obj_name);
    --lrg-3417773
    stmt := 'DELETE FROM SDO_NETWORK_HISTORIES WHERE OWNER = :name';
    EXECUTE IMMEDIATE stmt using NLS_UPPER(sys.dbms_standard.dictionary_obj_name);
    stmt := 'DELETE FROM SDO_NETWORK_TIMESTAMPS WHERE OWNER = :name';
    EXECUTE IMMEDIATE stmt using NLS_UPPER(sys.dbms_standard.dictionary_obj_name);
    stmt := 'DELETE FROM SDO_NETWORK_FEATURE WHERE SDO_OWNER = :name';
    EXECUTE IMMEDIATE stmt using NLS_UPPER(sys.dbms_standard.dictionary_obj_name);
  END IF;
END ;

call     count       cpu    elapsed       disk      query    current        rows
------- ------  -------- ---------- ---------- ---------- ----------  ----------
Parse        1      0.00       0.00          0          0          0           0
Execute      1      0.00       0.00          0          0          0           1
Fetch        0      0.00       0.00          0          0          0           0
------- ------  -------- ---------- ---------- ---------- ----------  ----------
total        2      0.00       0.00          0          0          0           1

Misses in library cache during parse: 0
Optimizer mode: ALL_ROWS
Parsing user id: 79  (MDSYS)   (recursive depth: 3)
********************************************************************************

declare
    l_line varchar2(32767);
    l_done number;
    l_buffer varchar2(32767) := '';
    l_lengthbuffer number := 0;
    l_lengthline number := 0;
begin 
	loop 
		dbms_output.get_line( l_line, l_done ); 
		if (l_buffer is null) then 
		  l_lengthbuffer := 0; 
		else 
		  l_lengthbuffer := length(l_buffer); 
		end if; 
		if (l_line is null) then 
		  l_lengthline := 0; 
		else 
		  l_lengthline := length(l_line); 
		end if; 
	exit when l_lengthbuffer + l_lengthline > :maxbytes OR l_lengthbuffer + l_lengthline > 32767 OR l_done = 1; 
	l_buffer := l_buffer || l_line || chr(10); 
    end loop; 
    :done := l_done; 
    :buffer := l_buffer; 
    :line := l_line; 
end;
					

call     count       cpu    elapsed       disk      query    current        rows
------- ------  -------- ---------- ---------- ---------- ----------  ----------
Parse        1      0.00       0.00          0          0          0           0
Execute      1      0.00       0.00          0          0          0           1
Fetch        0      0.00       0.00          0          0          0           0
------- ------  -------- ---------- ---------- ---------- ----------  ----------
total        2      0.00       0.00          0          0          0           1

Misses in library cache during parse: 0
Optimizer mode: ALL_ROWS
Parsing user id: 109  (CSCI317)



********************************************************************************

OVERALL TOTALS FOR ALL NON-RECURSIVE STATEMENTS

call     count       cpu    elapsed       disk      query    current        rows
------- ------  -------- ---------- ---------- ---------- ----------  ----------
Parse        4      0.01       0.04         10         69          0           0
Execute      4     10.04      32.30          7         79          0           4
Fetch        0      0.00       0.00          0          0          0           0
------- ------  -------- ---------- ---------- ---------- ----------  ----------
total        8     10.05      32.34         17        148          0           4

Misses in library cache during parse: 3


OVERALL TOTALS FOR ALL RECURSIVE STATEMENTS

call     count       cpu    elapsed       disk      query    current        rows
------- ------  -------- ---------- ---------- ---------- ----------  ----------
Parse      461      0.00       0.04          0          4          0           0
Execute 126545     30.45      94.04       6218     465475    1410451      303309
Fetch      883      0.22       0.70       1853       3374          2       63145
------- ------  -------- ---------- ---------- ---------- ----------  ----------
total   127889     30.68      94.79       8071     468853    1410453      366454

Misses in library cache during parse: 9
Misses in library cache during execute: 6

   18  user  SQL statements in session.
  124  internal SQL statements in session.
  142  SQL statements in session.
    5  statements EXPLAINed in this session.
********************************************************************************
Trace file: ip100215_s001_28733_SUNDAY.trc
Trace file compatibility: 11.1.0.7
Sort options: default

       1  session in tracefile.
      18  user  SQL statements in trace file.
     124  internal SQL statements in trace file.
     142  SQL statements in trace file.
     135  unique SQL statements in trace file.
       5  SQL statements EXPLAINed using schema:
           CSCI317.prof$plan_table
             Default table was used.
             Table was created.
             Table was dropped.
  318904  lines in trace file.
     127  elapsed seconds in trace file.


CREATE TABLE MIX AS(
SELECT DISTINCT *
FROM PART RIGHT JOIN PARTSUPP ON PART.P_PARTKEY = PARTSUPP.PS_PARTKEY
LEFT JOIN SUPPLIER ON SUPPLIER.S_SUPPKEY = PARTSUPP.PS_SUPPKEY);

CREATE TABLE NEW_TMP_PART(
P_PARTKEY 	NUMBER(12) 	NOT NULL,
P_NAME		VARCHAR(55)	NOT NULL,
P_MFGR		VARCHAR(25)	NOT NULL,
P_BRAND		CHAR(10)	NOT NULL,
P_TYPE		VARCHAR(25)	NOT NULL,
P_SIZE		NUMBER(12)	NOT NULL,
P_CONTAINER 	CHAR(10)	NOT NULL,
P_RETAILPRICE	NUMBER(12,2)	NOT NULL,
P_COMMENT	VARCHAR(23)	NOT NULL);

CREATE TABLE NEW_TMP_SUPPLIER(
S_SUPPKEY 	NUMBER(12)	NOT NULL,
S_NAME		CHAR(25)	NOT NULL,
S_ADDRESS	VARCHAR(40)	NOT NULL,
S_NATIONKEY	NUMBER(12)	NOT NULL,
S_PHONE 	CHAR(15)	NOT NULL,
S_ACCTBAL	NUMBER(12,2)	NOT NULL,
S_COMMENT	VARCHAR(101)	NOT NULL);

CREATE TABLE NEW_TMP_PARTSUPP(
PS_PARTKEY 	NUMBER(12)	NOT NULL,
PS_SUPPKEY	NUMBER(12)	NOT NULL,
PS_AVAILQTY	NUMBER(12)	NOT NULL,
PS_SUPPLYCOST	NUMBER(12,2)	NOT NULL,
PS_COMMENT	VARCHAR(199)	NOT NULL);
  
SET SERVEROUTPUT ON
DECLARE

BEGIN
    
  INSERT ALL
  INTO NEW_TMP_PART(P_PARTKEY, P_NAME, P_MFGR, P_BRAND, P_TYPE, P_SIZE, P_CONTAINER, P_RETAILPRICE, P_COMMENT)
  VALUES (P_PARTKEY, P_NAME, P_MFGR, P_BRAND, P_TYPE, P_SIZE, P_CONTAINER, P_RETAILPRICE, P_COMMENT)
  INTO NEW_TMP_SUPPLIER(S_SUPPKEY, S_NAME, S_ADDRESS, S_NATIONKEY, S_PHONE, S_ACCTBAL, S_COMMENT)
  VALUES(S_SUPPKEY, S_NAME, S_ADDRESS, S_NATIONKEY, S_PHONE, S_ACCTBAL, S_COMMENT)
  INTO NEW_TMP_PARTSUPP(PS_PARTKEY, PS_SUPPKEY, PS_AVAILQTY, PS_SUPPLYCOST, PS_COMMENT)
  VALUES(PS_PARTKEY, PS_SUPPKEY, PS_AVAILQTY, PS_SUPPLYCOST, PS_COMMENT)
  
  SELECT *
  FROM MIX;
  
  INSERT INTO NEW_PART
  SELECT DISTINCT * FROM NEW_TMP_PART;
  
  INSERT INTO NEW_SUPPLIER
  SELECT DISTINCT * FROM NEW_TMP_SUPPLIER;
  
  INSERT INTO NEW_PARTSUPP
  SELECT DISTINCT * FROM NEW_TMP_PARTSUPP;
  
END;
/



TKPROF: Release 12.1.0.2.0 - Development on Sun Oct 22 13:27:47 2017

Copyright (c) 1982, 2014, Oracle and/or its affiliates.  All rights reserved.

Trace file: ip100215_s001_28733_EXTRA.trc
Sort options: default

********************************************************************************
count    = number of times OCI procedure was executed
cpu      = cpu time in seconds executing 
elapsed  = elapsed time in seconds executing
disk     = number of physical reads of buffers from disk
query    = number of buffers gotten for consistent read
current  = number of buffers gotten in current mode (usually for update)
rows     = number of rows processed by the fetch or execute call
********************************************************************************

SQL ID: 9gpcbung1kvx6 Plan Hash: 0

BEGIN DBMS_SESSION.SET_SQL_TRACE(sql_trace => true); END;


call     count       cpu    elapsed       disk      query    current        rows
------- ------  -------- ---------- ---------- ---------- ----------  ----------
Parse        1      0.00       0.00          0          0          0           0
Execute      1      0.00       0.00          0          0          0           1
Fetch        0      0.00       0.00          0          0          0           0
------- ------  -------- ---------- ---------- ---------- ----------  ----------
total        2      0.00       0.00          0          0          0           1

Misses in library cache during parse: 0
Optimizer mode: ALL_ROWS
Parsing user id: 109  (CSCI317)
********************************************************************************

SQL ID: 4tk6t8tfsfqbf Plan Hash: 0

alter session set sql_trace=true


call     count       cpu    elapsed       disk      query    current        rows
------- ------  -------- ---------- ---------- ---------- ----------  ----------
Parse        1      0.00       0.00          0          0          0           0
Execute      1      0.00       0.00          0          0          0           0
Fetch        0      0.00       0.00          0          0          0           0
------- ------  -------- ---------- ---------- ---------- ----------  ----------
total        2      0.00       0.00          0          0          0           0

Misses in library cache during parse: 0
Parsing user id: 109  (CSCI317)   (recursive depth: 1)
********************************************************************************

CREATE TABLE MIX AS(
SELE

call     count       cpu    elapsed       disk      query    current        rows
------- ------  -------- ---------- ---------- ---------- ----------  ----------
Parse        1      0.01       0.02          9         30          0           0
Execute      1      2.31       6.78       5869       7022      29980      240000
Fetch        0      0.00       0.00          0          0          0           0
------- ------  -------- ---------- ---------- ---------- ----------  ----------
total        2      2.33       6.80       5878       7052      29980      240000

Misses in library cache during parse: 1
Optimizer mode: ALL_ROWS
Parsing user id: 109  (CSCI317)
Number of plan statistics captured: 1

Rows (1st) Rows (avg) Rows (max)  Row Source Operation
---------- ---------- ----------  ---------------------------------------------------
         0          0          0  LOAD AS SELECT  (cr=9228 pr=5909 pw=14009 time=7096562 us)
    240000     240000     240000   OPTIMIZER STATISTICS GATHERING  (cr=6096 pr=5807 pw=0 time=3917266 us cost=4418 size=97440000 card=240000)
    240000     240000     240000    HASH JOIN RIGHT OUTER (cr=6096 pr=5807 pw=0 time=1915300 us cost=4418 size=97440000 card=240000)
      3000       3000       3000     TABLE ACCESS FULL SUPPLIER (cr=82 pr=78 pw=0 time=10934 us cost=34 size=429000 card=3000)
    240000     240000     240000     HASH JOIN RIGHT OUTER (cr=6014 pr=5729 pw=0 time=1291355 us cost=4383 size=63120000 card=240000)
     60000      60000      60000      TABLE ACCESS FULL PART (cr=1070 pr=804 pw=0 time=87873 us cost=401 size=7260000 card=60000)
    240000     240000     240000      TABLE ACCESS FULL PARTSUPP (cr=4944 pr=4925 pw=0 time=502134 us cost=1856 size=34080000 card=240000)

error during execute of EXPLAIN PLAN statement
ORA-00928: missing SELECT keyword

parse error offset: 94
********************************************************************************

declare
 error boolean;
  st_syn_detected EXCEPTION;
   PRAGMA EXCEPTION_INIT(st_syn_detected, -995);
 BEGIN
   if((sys.dbms_standard.dictionary_obj_type!='SYNONYM')or(sys.dbms_standard.dictionary_obj_owner!='PUBLIC'))
   then
     return;
   end if;
   error :=
      CASE sys.dbms_standard.dictionary_obj_name
         WHEN 'ST_GEOMETRY' THEN TRUE
         WHEN 'ST_SURFACE' THEN TRUE
         WHEN 'ST_POLYGON' THEN TRUE
         WHEN 'ST_POINT' THEN TRUE
         WHEN 'ST_MULTISURFACE' THEN TRUE
         WHEN 'ST_MULTIPOINT' THEN TRUE
         WHEN 'ST_MULTILINESTRING' THEN TRUE
         WHEN 'ST_MULTICURVE' THEN TRUE
         WHEN 'ST_LINESTRING' THEN TRUE
         WHEN 'ST_GEOMCOLLECTION' THEN TRUE
         WHEN 'ST_CURVE' THEN TRUE
         WHEN 'ST_CURVEPOLYGON' THEN TRUE
         WHEN 'ST_COMPOUNDCURVE' THEN TRUE
         WHEN 'ST_CIRCULARSTRING' THEN TRUE
         WHEN 'ST_INTERSECTS' THEN TRUE
         WHEN 'ST_RELATE' THEN TRUE
         WHEN 'ST_TOUCH' THEN TRUE
         WHEN 'ST_CONTAINS' THEN TRUE
         WHEN 'ST_COVERS' THEN TRUE
         WHEN 'ST_COVEREDBY' THEN TRUE
         WHEN 'ST_INSIDE' THEN TRUE
         WHEN 'ST_OVERLAP' THEN TRUE
         WHEN 'ST_OVERLAPS' THEN TRUE
         WHEN 'ST_EQUAL' THEN TRUE
         WHEN 'ST_OVERLAPBDYDISJOINT' THEN TRUE
         WHEN 'ST_OVERLAPBDYINTERSECT' THEN TRUE
         WHEN 'ST_GEOMETRY_ARRAY' THEN TRUE
         WHEN 'ST_POINT_ARRAY' THEN TRUE
         WHEN 'ST_CURVE_ARRAY' THEN TRUE
         WHEN 'ST_SURFACE_ARRAY' THEN TRUE
         WHEN 'ST_LINESTRING_ARRAY' THEN TRUE
         WHEN 'ST_POLYGON_ARRAY' THEN TRUE
         ELSE FALSE
      END;
   if(error) then
     raise st_syn_detected;
   end if;
 END;

call     count       cpu    elapsed       disk      query    current        rows
------- ------  -------- ---------- ---------- ---------- ----------  ----------
Parse        4      0.00       0.00          0          0          0           0
Execute      4      0.00       0.00          0          0          0           4
Fetch        0      0.00       0.00          0          0          0           0
------- ------  -------- ---------- ---------- ---------- ----------  ----------
total        8      0.00       0.00          0          0          0           4

Misses in library cache during parse: 0
Optimizer mode: ALL_ROWS
Parsing user id: 79  (MDSYS)   (recursive depth: 1)
********************************************************************************

DECLARE
  stmt    VARCHAR2(256);
BEGIN
  IF  sys.dbms_standard.dictionary_obj_type = 'USER'  THEN
    stmt := 'DELETE FROM SDO_NETWORK_METADATA_TABLE WHERE SDO_OWNER = :name';
    EXECUTE IMMEDIATE stmt using NLS_UPPER(sys.dbms_standard.dictionary_obj_name);
    stmt := 'DELETE FROM SDO_NETWORK_CONSTRAINTS WHERE SDO_OWNER = :name';
    EXECUTE IMMEDIATE stmt using NLS_UPPER(sys.dbms_standard.dictionary_obj_name);
    stmt := 'DELETE FROM SDO_NETWORK_LOCKS_WM WHERE SDO_OWNER = :name';
    EXECUTE IMMEDIATE stmt using NLS_UPPER(sys.dbms_standard.dictionary_obj_name);
    stmt := 'DELETE FROM SDO_NETWORK_USER_DATA WHERE SDO_OWNER = :name';
    EXECUTE IMMEDIATE stmt using NLS_UPPER(sys.dbms_standard.dictionary_obj_name);
    --lrg-3417773
    stmt := 'DELETE FROM SDO_NETWORK_HISTORIES WHERE OWNER = :name';
    EXECUTE IMMEDIATE stmt using NLS_UPPER(sys.dbms_standard.dictionary_obj_name);
    stmt := 'DELETE FROM SDO_NETWORK_TIMESTAMPS WHERE OWNER = :name';
    EXECUTE IMMEDIATE stmt using NLS_UPPER(sys.dbms_standard.dictionary_obj_name);
    stmt := 'DELETE FROM SDO_NETWORK_FEATURE WHERE SDO_OWNER = :name';
    EXECUTE IMMEDIATE stmt using NLS_UPPER(sys.dbms_standard.dictionary_obj_name);
  END IF;
END ;

call     count       cpu    elapsed       disk      query    current        rows
------- ------  -------- ---------- ---------- ---------- ----------  ----------
Parse        4      0.00       0.00          0          0          0           0
Execute      4      0.00       0.00          0          0          0           4
Fetch        0      0.00       0.00          0          0          0           0
------- ------  -------- ---------- ---------- ---------- ----------  ----------
total        8      0.00       0.00          0          0          0           4

Misses in library cache during parse: 0
Optimizer mode: ALL_ROWS
Parsing user id: 79  (MDSYS)   (recursive depth: 2)
********************************************************************************

declare
   stmt varchar2(200);
   cnt number;
BEGIN
     if sys.dbms_standard.dictionary_obj_type = 'USER' THEN
       stmt := 'DELETE FROM SDO_GEOM_METADATA_TABLE ' ||
     ' WHERE SDO_OWNER = :owner ';
       EXECUTE IMMEDIATE stmt USING sys.dbms_standard.dictionary_obj_name;
       stmt := 'DELETE FROM SDO_MAPS_TABLE ' ||
    ' WHERE SDO_OWNER = :owner ';
       EXECUTE IMMEDIATE stmt USING sys.dbms_standard.dictionary_obj_name;
       stmt := 'DELETE FROM SDO_CACHED_MAPS_TABLE ' ||
    ' WHERE SDO_OWNER = :owner ';
       EXECUTE IMMEDIATE stmt USING sys.dbms_standard.dictionary_obj_name;
       stmt := 'DELETE FROM SDO_STYLES_TABLE ' ||
    ' WHERE SDO_OWNER = :owner ';
       EXECUTE IMMEDIATE stmt USING sys.dbms_standard.dictionary_obj_name;
       stmt := 'DELETE FROM SDO_THEMES_TABLE ' ||
   ' WHERE SDO_OWNER = :owner ';
       EXECUTE IMMEDIATE stmt USING sys.dbms_standard.dictionary_obj_name;
       stmt := 'DELETE FROM SDO_LRS_METADATA_TABLE ' ||
   ' WHERE SDO_OWNER = :owner ';
       EXECUTE IMMEDIATE stmt USING sys.dbms_standard.dictionary_obj_name;
       stmt := 'DELETE FROM SDO_TOPO_METADATA_TABLE ' ||
   ' WHERE SDO_OWNER = :owner ';
       EXECUTE IMMEDIATE stmt USING sys.dbms_standard.dictionary_obj_name;
       stmt := 'DELETE FROM SDO_ANNOTATION_TEXT_METADATA ' ||
   ' WHERE F_TABLE_SCHEMA = :owner ';
       EXECUTE IMMEDIATE stmt USING sys.dbms_standard.dictionary_obj_name;
    end if;
end;

call     count       cpu    elapsed       disk      query    current        rows
------- ------  -------- ---------- ---------- ---------- ----------  ----------
Parse        4      0.00       0.00          0          0          0           0
Execute      4      0.00       0.00          0          0          0           4
Fetch        0      0.00       0.00          0          0          0           0
------- ------  -------- ---------- ---------- ---------- ----------  ----------
total        8      0.00       0.00          0          0          0           4

Misses in library cache during parse: 0
Optimizer mode: ALL_ROWS
Parsing user id: 79  (MDSYS)   (recursive depth: 2)
********************************************************************************

declare
    l_line varchar2(32767);
    l_done number;
    l_buffer varchar2(32767) := '';
    l_lengthbuffer number := 0;
    l_lengthline number := 0;
begin 
	loop 
		dbms_output.get_line( l_line, l_done ); 
		if (l_buffer is null) then 
		  l_lengthbuffer := 0; 
		else 
		  l_lengthbuffer := length(l_buffer); 
		end if; 
		if (l_line is null) then 
		  l_lengthline := 0; 
		else 
		  l_lengthline := length(l_line); 
		end if; 
	exit when l_lengthbuffer + l_lengthline > :maxbytes OR l_lengthbuffer + l_lengthline > 32767 OR l_done = 1; 
	l_buffer := l_buffer || l_line || chr(10); 
    end loop; 
    :done := l_done; 
    :buffer := l_buffer; 
    :line := l_line; 
end;
					

call     count       cpu    elapsed       disk      query    current        rows
------- ------  -------- ---------- ---------- ---------- ----------  ----------
Parse        5      0.00       0.00          0          0          0           0
Execute      5      0.00       0.00          0          0          0           5
Fetch        0      0.00       0.00          0          0          0           0
------- ------  -------- ---------- ---------- ---------- ----------  ----------
total       10      0.00       0.00          0          0          0           5

Misses in library cache during parse: 0
Optimizer mode: ALL_ROWS
Parsing user id: 109  (CSCI317)
********************************************************************************

SQL ID: 3a32pkaggywn3 Plan Hash: 0

CREATE TABLE NEW_TMP_PART


call     count       cpu    elapsed       disk      query    current        rows
------- ------  -------- ---------- ---------- ---------- ----------  ----------
Parse        4      0.00       0.00          0          0          0           0
Execute      4      0.01       0.05          0          0         16           2
Fetch        0      0.00       0.00          0          0          0           0
------- ------  -------- ---------- ---------- ---------- ----------  ----------
total        8      0.01       0.06          0          0         16           2

Misses in library cache during parse: 2
Optimizer mode: ALL_ROWS
Parsing user id: 109  (CSCI317)
error during execute of EXPLAIN PLAN statement
ORA-00906: missing left parenthesis

parse error offset: 98
********************************************************************************

SQL ID: bth33kat6ndq4 Plan Hash: 0

CREATE TABLE NEW_TMP_SUPP


call     count       cpu    elapsed       disk      query    current        rows
------- ------  -------- ---------- ---------- ---------- ----------  ----------
Parse        1      0.00       0.00          0          0          0           0
Execute      1      0.01       0.03          0          0          9           0
Fetch        0      0.00       0.00          0          0          0           0
------- ------  -------- ---------- ---------- ---------- ----------  ----------
total        2      0.01       0.03          0          0          9           0

Misses in library cache during parse: 1
Optimizer mode: ALL_ROWS
Parsing user id: 109  (CSCI317)
error during execute of EXPLAIN PLAN statement
ORA-00906: missing left parenthesis

parse error offset: 98
********************************************************************************

SQL ID: d77x6f7gw9hfv Plan Hash: 0

begin dbms_output.enable(1000000); end;


call     count       cpu    elapsed       disk      query    current        rows
------- ------  -------- ---------- ---------- ---------- ----------  ----------
Parse        1      0.00       0.00          0          0          0           0
Execute      1      0.00       0.00          0          0          0           1
Fetch        0      0.00       0.00          0          0          0           0
------- ------  -------- ---------- ---------- ---------- ----------  ----------
total        2      0.00       0.00          0          0          0           1

Misses in library cache during parse: 0
Optimizer mode: ALL_ROWS
Parsing user id: 109  (CSCI317)
********************************************************************************

DECLARE
BEGIN
    
  INSERT ALL
  INTO NEW_TMP_PART(P_PARTKEY, P_NAME, P_MFGR, P_BRAND, P_TYPE, P_SIZE, P_CONTAINER, P_RETAILPRICE, P_COMMENT)
  VALUES (P_PARTKEY, P_NAME, P_MFGR, P_BRAND, P_TYPE, P_SIZE, P_CONTAINER, P_RETAILPRICE, P_COMMENT)
  INTO NEW_TMP_SUPPLIER(S_SUPPKEY, S_NAME, S_ADDRESS, S_NATIONKEY, S_PHONE, S_ACCTBAL, S_COMMENT)
  VALUES(S_SUPPKEY, S_NAME, S_ADDRESS, S_NATIONKEY, S_PHONE, S_ACCTBAL, S_COMMENT)
  INTO NEW_TMP_PARTSUPP(PS_PARTKEY, PS_SUPPKEY, PS_AVAILQTY, PS_SUPPLYCOST, PS_COMMENT)
  VALUES(PS_PARTKEY, PS_SUPPKEY, PS_AVAILQTY, PS_SUPPLYCOST, PS_COMMENT)
  
  SELECT *
  FROM MIX;
  
  INSERT INTO NEW_PART
  SELECT DISTINCT * FROM NEW_TMP_PART;
  
  INSERT INTO NEW_SUPPLIER
  SELECT DISTINCT * FROM NEW_TMP_SUPPLIER;
  
  INSERT INTO NEW_PARTSUPP
  SELECT DISTINCT * FROM NEW_TMP_PARTSUPP;
  
END;

call     count       cpu    elapsed       disk      query    current        rows
------- ------  -------- ---------- ---------- ---------- ----------  ----------
Parse        1      0.00       0.00          0          0          0           0
Execute      1      0.00       0.00          0          0          0           1
Fetch        0      0.00       0.00          0          0          0           0
------- ------  -------- ---------- ---------- ---------- ----------  ----------
total        2      0.00       0.00          0          0          0           1

Misses in library cache during parse: 1
Optimizer mode: ALL_ROWS
Parsing user id: 109  (CSCI317)
********************************************************************************

SQL ID: c5awtbkcwp3p1 Plan Hash: 4243913708

INSERT ALL INTO NEW_TMP_PART(P_PARTKEY, P_NAME, P_MFGR, P_BRAND, P_TYPE, 
  P_SIZE, P_CONTAINER, P_RETAILPRICE, P_COMMENT) 
VALUES
 (P_PARTKEY, P_NAME, P_MFGR, P_BRAND, P_TYPE, P_SIZE, P_CONTAINER, 
  P_RETAILPRICE, P_COMMENT) INTO NEW_TMP_SUPPLIER(S_SUPPKEY, S_NAME, 
  S_ADDRESS, S_NATIONKEY, S_PHONE, S_ACCTBAL, S_COMMENT) VALUES(S_SUPPKEY, 
  S_NAME, S_ADDRESS, S_NATIONKEY, S_PHONE, S_ACCTBAL, S_COMMENT) INTO 
  NEW_TMP_PARTSUPP(PS_PARTKEY, PS_SUPPKEY, PS_AVAILQTY, PS_SUPPLYCOST, 
  PS_COMMENT) VALUES(PS_PARTKEY, PS_SUPPKEY, PS_AVAILQTY, PS_SUPPLYCOST, 
  PS_COMMENT) SELECT * FROM MIX


call     count       cpu    elapsed       disk      query    current        rows
------- ------  -------- ---------- ---------- ---------- ----------  ----------
Parse        1      0.00       0.00          0          0          0           0
Execute      1      1.57       4.95      14018      30732     108909      720000
Fetch        0      0.00       0.00          0          0          0           0
------- ------  -------- ---------- ---------- ---------- ----------  ----------
total        2      1.57       4.95      14018      30732     108909      720000

Misses in library cache during parse: 1
Misses in library cache during execute: 1
Optimizer mode: ALL_ROWS
Parsing user id: 109  (CSCI317)   (recursive depth: 1)
Number of plan statistics captured: 1

Rows (1st) Rows (avg) Rows (max)  Row Source Operation
---------- ---------- ----------  ---------------------------------------------------
         0          0          0  MULTI-TABLE INSERT  (cr=32191 pr=14048 pw=0 time=5211578 us)
    240000     240000     240000   TABLE ACCESS FULL MIX (cr=14057 pr=14012 pw=0 time=1031175 us cost=5320 size=97440000 card=240000)
         0          0          0   INTO  NEW_TMP_PART (cr=0 pr=0 pw=0 time=0 us)
         0          0          0   INTO  NEW_TMP_SUPPLIER (cr=0 pr=0 pw=0 time=0 us)
         0          0          0   INTO  NEW_TMP_PARTSUPP (cr=0 pr=0 pw=0 time=0 us)


Rows     Execution Plan
-------  ---------------------------------------------------
      0  INSERT STATEMENT   MODE: ALL_ROWS
      0   MULTI-TABLE INSERT
 240000    TABLE ACCESS   MODE: ANALYZED (FULL) OF 'MIX' (TABLE)

********************************************************************************

SQL ID: 268j2857bjzbj Plan Hash: 3197930890

SELECT /* OPT_DYN_SAMP */ /*+ ALL_ROWS IGNORE_WHERE_CLAUSE 
  NO_PARALLEL(SAMPLESUB) opt_param('parallel_execution_enabled', 'false') 
  NO_PARALLEL_INDEX(SAMPLESUB) NO_SQL_TUNE */ NVL(SUM(C1),:"SYS_B_0"), 
  NVL(SUM(C2),:"SYS_B_1") 
FROM
 (SELECT /*+ NO_PARALLEL("NEW_TMP_PART") FULL("NEW_TMP_PART") 
  NO_PARALLEL_INDEX("NEW_TMP_PART") */ :"SYS_B_2" AS C1, :"SYS_B_3" AS C2 
  FROM "CSCI317"."NEW_TMP_PART" SAMPLE BLOCK (:"SYS_B_4" , :"SYS_B_5") SEED 
  (:"SYS_B_6") "NEW_TMP_PART") SAMPLESUB


call     count       cpu    elapsed       disk      query    current        rows
------- ------  -------- ---------- ---------- ---------- ----------  ----------
Parse        2      0.00       0.00          0          0          0           0
Execute      2      0.00       0.00          0          0          0           0
Fetch        2      0.00       0.02        148        224          1           2
------- ------  -------- ---------- ---------- ---------- ----------  ----------
total        6      0.00       0.02        148        224          1           2

Misses in library cache during parse: 1
Misses in library cache during execute: 1
Optimizer mode: ALL_ROWS
Parsing user id: 109  (CSCI317)   (recursive depth: 2)
Number of plan statistics captured: 2

Rows (1st) Rows (avg) Rows (max)  Row Source Operation
---------- ---------- ----------  ---------------------------------------------------
         1          1          1  SORT AGGREGATE (cr=112 pr=74 pw=0 time=11888 us)
      3732       3732       3732   TABLE ACCESS SAMPLE NEW_TMP_PART (cr=112 pr=74 pw=0 time=11694 us cost=2 size=48 card=4)

error during execute of EXPLAIN PLAN statement
ORA-00907: missing right parenthesis

parse error offset: 472
********************************************************************************

SQL ID: 7armrxzcy254x Plan Hash: 1429539700

INSERT INTO NEW_PART SELECT DISTINCT * FROM NEW_TMP_PART


call     count       cpu    elapsed       disk      query    current        rows
------- ------  -------- ---------- ---------- ---------- ----------  ----------
Parse        1      0.00       0.00          0          1          0           0
Execute      1      0.48       1.37       4107       6089      41116       60000
Fetch        0      0.00       0.00          0          0          0           0
------- ------  -------- ---------- ---------- ---------- ----------  ----------
total        2      0.48       1.37       4107       6090      41116       60000

Misses in library cache during parse: 1
Misses in library cache during execute: 1
Optimizer mode: ALL_ROWS
Parsing user id: 109  (CSCI317)   (recursive depth: 1)
Number of plan statistics captured: 1

Rows (1st) Rows (avg) Rows (max)  Row Source Operation
---------- ---------- ----------  ---------------------------------------------------
         0          0          0  LOAD TABLE CONVENTIONAL  NEW_PART (cr=6169 pr=4106 pw=0 time=1385350 us)
     60000      60000      60000   HASH UNIQUE (cr=4199 pr=4102 pw=0 time=618629 us cost=8927 size=32956469 card=247793)
    240000     240000     240000    TABLE ACCESS FULL NEW_TMP_PART (cr=4199 pr=4102 pw=0 time=264306 us cost=1573 size=32956469 card=247793)


Rows     Execution Plan
-------  ---------------------------------------------------
      0  INSERT STATEMENT   MODE: ALL_ROWS
      0   LOAD TABLE CONVENTIONAL OF 'NEW_PART'
  60000    HASH (UNIQUE)
 240000     TABLE ACCESS (FULL) OF 'NEW_TMP_PART' (TABLE)

********************************************************************************

SQL ID: 258h0qu579x03 Plan Hash: 2478436573

SELECT /* OPT_DYN_SAMP */ /*+ ALL_ROWS IGNORE_WHERE_CLAUSE 
  NO_PARALLEL(SAMPLESUB) opt_param('parallel_execution_enabled', 'false') 
  NO_PARALLEL_INDEX(SAMPLESUB) NO_SQL_TUNE */ NVL(SUM(C1),:"SYS_B_0"), 
  NVL(SUM(C2),:"SYS_B_1") 
FROM
 (SELECT /*+ NO_PARALLEL("NEW_TMP_SUPPLIER") FULL("NEW_TMP_SUPPLIER") 
  NO_PARALLEL_INDEX("NEW_TMP_SUPPLIER") */ :"SYS_B_2" AS C1, :"SYS_B_3" AS C2 
  FROM "CSCI317"."NEW_TMP_SUPPLIER" SAMPLE BLOCK (:"SYS_B_4" , :"SYS_B_5") 
  SEED (:"SYS_B_6") "NEW_TMP_SUPPLIER") SAMPLESUB


call     count       cpu    elapsed       disk      query    current        rows
------- ------  -------- ---------- ---------- ---------- ----------  ----------
Parse        2      0.00       0.00          0          0          0           0
Execute      2      0.00       0.00          0          0          0           0
Fetch        2      0.00       0.00        159        217          1           2
------- ------  -------- ---------- ---------- ---------- ----------  ----------
total        6      0.00       0.00        159        217          1           2

Misses in library cache during parse: 1
Misses in library cache during execute: 1
Optimizer mode: ALL_ROWS
Parsing user id: 109  (CSCI317)   (recursive depth: 2)
Number of plan statistics captured: 2

Rows (1st) Rows (avg) Rows (max)  Row Source Operation
---------- ---------- ----------  ---------------------------------------------------
         1          1          1  SORT AGGREGATE (cr=108 pr=80 pw=0 time=804 us)
      2613       2613       2613   TABLE ACCESS SAMPLE NEW_TMP_SUPPLIER (cr=108 pr=80 pw=0 time=690 us cost=2 size=48 card=4)

error during execute of EXPLAIN PLAN statement
ORA-00907: missing right parenthesis

parse error offset: 488
********************************************************************************

SQL ID: 99aht1dryct50 Plan Hash: 628130047

INSERT INTO NEW_SUPPLIER SELECT DISTINCT * FROM NEW_TMP_SUPPLIER


call     count       cpu    elapsed       disk      query    current        rows
------- ------  -------- ---------- ---------- ---------- ----------  ----------
Parse        1      0.00       0.01          1          1          0           0
Execute      1      0.24       0.72       4922       5095       4263        3000
Fetch        0      0.00       0.00          0          0          0           0
------- ------  -------- ---------- ---------- ---------- ----------  ----------
total        2      0.25       0.73       4923       5096       4263        3000

Misses in library cache during parse: 1
Misses in library cache during execute: 1
Optimizer mode: ALL_ROWS
Parsing user id: 109  (CSCI317)   (recursive depth: 1)
Number of plan statistics captured: 1

Rows (1st) Rows (avg) Rows (max)  Row Source Operation
---------- ---------- ----------  ---------------------------------------------------
         0          0          0  LOAD TABLE CONVENTIONAL  NEW_SUPPLIER (cr=5100 pr=4921 pw=0 time=712136 us)
      3000       3000       3000   HASH UNIQUE (cr=4988 pr=4918 pw=0 time=678320 us cost=8999 size=32363509 card=206137)
    240000     240000     240000    TABLE ACCESS FULL NEW_TMP_SUPPLIER (cr=4988 pr=4918 pw=0 time=285353 us cost=1868 size=32363509 card=206137)


Rows     Execution Plan
-------  ---------------------------------------------------
      0  INSERT STATEMENT   MODE: ALL_ROWS
      0   LOAD TABLE CONVENTIONAL OF 'NEW_SUPPLIER'
   3000    HASH (UNIQUE)
 240000     TABLE ACCESS (FULL) OF 'NEW_TMP_SUPPLIER' (TABLE)

********************************************************************************

SQL ID: 5gzuuhvb4ykf7 Plan Hash: 3417897926

INSERT INTO NEW_PARTSUPP SELECT DISTINCT * FROM NEW_TMP_PARTSUPP


call     count       cpu    elapsed       disk      query    current        rows
------- ------  -------- ---------- ---------- ---------- ----------  ----------
Parse        1      0.00       0.01          0          1          2           0
Execute      1      2.40       6.99       6330      14582    1103065      240000
Fetch        0      0.00       0.00          0          0          0           0
------- ------  -------- ---------- ---------- ---------- ----------  ----------
total        2      2.40       7.00       6330      14583    1103067      240000

Misses in library cache during parse: 1
Misses in library cache during execute: 1
Optimizer mode: ALL_ROWS
Parsing user id: 109  (CSCI317)   (recursive depth: 1)
Number of plan statistics captured: 1

Rows (1st) Rows (avg) Rows (max)  Row Source Operation
---------- ---------- ----------  ---------------------------------------------------
         0          0          0  LOAD TABLE CONVENTIONAL  NEW_PARTSUPP (cr=15492 pr=6360 pw=930 time=7190727 us)
    240000     240000     240000   HASH UNIQUE (cr=4957 pr=5802 pw=930 time=1103327 us cost=11195 size=42233355 card=276035)
    240000     240000     240000    TABLE ACCESS FULL NEW_TMP_PARTSUPP (cr=4957 pr=4872 pw=0 time=284189 us cost=1856 size=42233355 card=276035)


Rows     Execution Plan
-------  ---------------------------------------------------
      0  INSERT STATEMENT   MODE: ALL_ROWS
      0   LOAD TABLE CONVENTIONAL OF 'NEW_PARTSUPP'
 240000    HASH (UNIQUE)
 240000     TABLE ACCESS (FULL) OF 'NEW_TMP_PARTSUPP' (TABLE)

********************************************************************************

SQL ID: 31azfvnj422z1 Plan Hash: 1108604804

SELECT /* OPT_DYN_SAMP */ /*+ ALL_ROWS IGNORE_WHERE_CLAUSE 
  NO_PARALLEL(SAMPLESUB) opt_param('parallel_execution_enabled', 'false') 
  NO_PARALLEL_INDEX(SAMPLESUB) NO_SQL_TUNE */ NVL(SUM(C1),:"SYS_B_0"), 
  NVL(SUM(C2),:"SYS_B_1") 
FROM
 (SELECT /*+ NO_PARALLEL("NEW_TMP_PARTSUPP") FULL("NEW_TMP_PARTSUPP") 
  NO_PARALLEL_INDEX("NEW_TMP_PARTSUPP") */ :"SYS_B_2" AS C1, :"SYS_B_3" AS C2 
  FROM "CSCI317"."NEW_TMP_PARTSUPP" SAMPLE BLOCK (:"SYS_B_4" , :"SYS_B_5") 
  SEED (:"SYS_B_6") "NEW_TMP_PARTSUPP") SAMPLESUB


call     count       cpu    elapsed       disk      query    current        rows
------- ------  -------- ---------- ---------- ---------- ----------  ----------
Parse        2      0.00       0.00          0          0          0           0
Execute      2      0.00       0.00          0          0          0           0
Fetch        2      0.00       0.00        192        252          1           2
------- ------  -------- ---------- ---------- ---------- ----------  ----------
total        6      0.00       0.01        192        252          1           2

Misses in library cache during parse: 1
Misses in library cache during execute: 1
Optimizer mode: ALL_ROWS
Parsing user id: 109  (CSCI317)   (recursive depth: 2)
Number of plan statistics captured: 2

Rows (1st) Rows (avg) Rows (max)  Row Source Operation
---------- ---------- ----------  ---------------------------------------------------
         1          1          1  SORT AGGREGATE (cr=126 pr=96 pw=0 time=1646 us)
      3521       3521       3521   TABLE ACCESS SAMPLE NEW_TMP_PARTSUPP (cr=126 pr=96 pw=0 time=1116 us cost=2 size=48 card=4)

error during execute of EXPLAIN PLAN statement
ORA-00907: missing right parenthesis

parse error offset: 488



********************************************************************************

OVERALL TOTALS FOR ALL NON-RECURSIVE STATEMENTS

call     count       cpu    elapsed       disk      query    current        rows
------- ------  -------- ---------- ---------- ---------- ----------  ----------
Parse       14      0.01       0.03          9         30          0           0
Execute     14      2.34       6.87       5869       7022      30005      240010
Fetch        0      0.00       0.00          0          0          0           0
------- ------  -------- ---------- ---------- ---------- ----------  ----------
total       28      2.36       6.90       5878       7052      30005      240010

Misses in library cache during parse: 5


OVERALL TOTALS FOR ALL RECURSIVE STATEMENTS

call     count       cpu    elapsed       disk      query    current        rows
------- ------  -------- ---------- ---------- ---------- ----------  ----------
Parse     1828      0.09       0.29          1         84          2           0
Execute   2926      5.13      15.35      29491      60083    1260804     1024542
Fetch     4306      0.04       0.18        610      11539          3        4190
------- ------  -------- ---------- ---------- ---------- ----------  ----------
total     9060      5.28      15.83      30102      71706    1260809     1028732

Misses in library cache during parse: 32
Misses in library cache during execute: 23

   30  user  SQL statements in session.
  485  internal SQL statements in session.
  515  SQL statements in session.
    4  statements EXPLAINed in this session.
********************************************************************************
Trace file: ip100215_s001_28733_EXTRA.trc
Trace file compatibility: 11.1.0.7
Sort options: default

       1  session in tracefile.
      30  user  SQL statements in trace file.
     485  internal SQL statements in trace file.
     515  SQL statements in trace file.
     187  unique SQL statements in trace file.
       4  SQL statements EXPLAINed using schema:
           CSCI317.prof$plan_table
             Default table was used.
             Table was created.
             Table was dropped.
   16456  lines in trace file.
      36  elapsed seconds in trace file.




