SQL> /* Task 2.1 */
SQL> DELETE FROM Teaches
  2  WHERE lecturer NOT IN (SELECT DISTINCT lecturer
  3  FROM Teaches
  4  WHERE TO_CHAR(Teaches.year)>=(SELECT TO_CHAR(SYSDATE-2*365,'YYYY') FROM DUAL) AND
  5  TO_CHAR(Teaches.year)<=(SELECT TO_CHAR(SYSDATE,'YYYY') FROM DUAL));

3 rows deleted.

SQL> 
SQL> DELETE FROM Academic
  2  WHERE staff# NOT IN (SELECT lecturer
  3  FROM Teaches);

2 rows deleted.

SQL> 
SQL> /* Task 2.2 */
SQL> CREATE TABLE CSCI235(
  2  staff#	     NUMBER(10)      NOT NULL, /* Staff number		     */
  3  first_name      VARCHAR(30)     NOT NULL, /* First name		     */
  4  last_name	     VARCHAR(30)     NOT NULL, /* Last name		     */
  5  email	     VARCHAR(50)     NOT NULL, /* Email address 	     */
  6  bldg#	     NUMBER(5)	     NOT NULL, /* Office in building	     */
  7  room#	     VARCHAR(5)      NOT NULL, /* Office number+suffix	     */
  8  phone#	     NUMBER(4)	     NOT NULL, /* Phone number		     */
  9  position	     VARCHAR(20)     NOT NULL, /* Position occupied	     */
 10  	     CONSTRAINT CSCI235_pkey PRIMARY KEY( staff# ),
 11  	     CONSTRAINT CSCI235_fkey FOREIGN KEY ( staff# )
 12  				     REFERENCES Academic( staff#) );

Table created.

SQL> 
SQL> INSERT INTO CSCI235
  2  (SELECT *
  3  FROM Academic
  4  WHERE Academic.staff# IN (SELECT Teaches.lecturer
  5  FROM Teaches
  6  WHERE Teaches.code='CSCI235'));

4 rows created.

SQL> 
SQL> /* Task 2.3 */
SQL> ALTER TABLE ACADEMIC ADD (total_subjects NUMBER(1));

Table altered.

SQL> UPDATE ACADEMIC
  2  SET total_subjects =
  3  (SELECT COUNT(Teaches.code)
  4  FROM Teaches
  5  WHERE Teaches.lecturer=Academic.staff#
  6  GROUP BY Teaches.lecturer);

10 rows updated.

SQL> 
SQL> SPOOL OFF
