SQL> CREATE VIEW VAPPS(p#,totap) AS
  2  (SELECT Position.p#, COALESCE(count(Applies.P#),0)
  3  FROM Position LEFT OUTER JOIN Applies
  4  ON Position.p#=Applies.p#
  5  GROUP BY Position.p#);

View created.

SQL> 
SQL> SELECT Position.ptitle, Position.salary
  2  FROM Position, VAPPS
  3  WHERE Position.p#=VAPPS.p# AND VAPPS.totap>1;

PTITLE                             SALARY                                                           
------------------------------ ----------                                                           
PROFESSOR                           80000                                                           
SENIOR LECTURER                     50000                                                           
LECTURER                           450000                                                           
PROFESSOR                           80000                                                           
LECTURER                            45000                                                           
ASSOC. PROFESSOR                    60000                                                           

6 rows selected.

SQL> 
SQL> CREATE VIEW APP AS (SELECT *
  2  FROM Applicant
  3  WHERE Applicant.a# IN (SELECT Applies.a#
  4  FROM  Applies
  5  GROUP BY Applies.a#
  6  HAVING COUNT(Applies.a#)>1));

View created.

SQL> 
SQL> GRANT SELECT ON APP TO SCOTT;

Grant succeeded.

SQL> 
SQL> GRANT REFERENCES (a#,p#) ON Applies TO SCOTT;

Grant succeeded.

SQL> SPOOL OFF
