SQL> SET ECHO ON
SQL> SET FEEDBACK ON
SQL> SET LINESIZE 100
SQL> SET PAGESIZE 100
SQL> SET SERVEROUTPUT ON
SQL> 
SQL> CREATE OR REPLACE FUNCTION FINDAPPS (position NUMBER) RETURN
  2  VARCHAR IS
  3  	     results VARCHAR(10000);
  4  ANUM NUMBER;
  5  CURSOR app_cursor(position NUMBER) IS SELECT SPOSSESSED.anumber
  6  FROM SNEEDED LEFT OUTER JOIN SPOSSESSED
  7  ON SPOSSESSED.sname=SNEEDED.sname
  8  WHERE SNEEDED.pnumber=position AND SPOSSESSED.slevel>=SNEEDED.slevel
  9  GROUP BY SPOSSESSED.anumber
 10  HAVING COUNT(SPOSSESSED.sname)>= (SELECT COUNT(SNEEDED.sname) FROM SNEEDED
 11  WHERE SNEEDED.pnumber=position);
 12  BEGIN
 13  	     results:=TO_CHAR(position)||': ';
 14  	     OPEN app_cursor(position);
 15  	     LOOP
 16  		     FETCH app_cursor INTO ANUM;
 17  		     IF app_cursor%NOTFOUND THEN
 18  			     EXIT;
 19  		     END IF;
 20  		     results := results||' '||TO_CHAR(ANUM);
 21  	     END LOOP;
 22  	     CLOSE app_cursor;
 23  	     RETURN results;
 24  END FINDAPPS;
 25  /

Function created.

SQL> 
SQL> SELECT FINDAPPS(4) FROM DUAL;

FINDAPPS(4)                                                                                         
----------------------------------------------------------------------------------------------------
4:  6 20 5 7 10                                                                                     

1 row selected.

SQL> SELECT FINDAPPS(1) FROM DUAL;

FINDAPPS(1)                                                                                         
----------------------------------------------------------------------------------------------------
1:                                                                                                  

1 row selected.

SQL> SPOOL OFF
